%YAML 1.1
%TAG !u! tag:unity3d.com,2011:
--- !u!1 &143244
GameObject:
  m_ObjectHideFlags: 0
  m_PrefabParentObject: {fileID: 0}
  m_PrefabInternal: {fileID: 100100000}
  serializedVersion: 4
  m_Component:
  - 4: {fileID: 427542}
  - 108: {fileID: 10811052}
  - 114: {fileID: 11499758}
  m_Layer: 0
  m_Name: Light
  m_TagString: Untagged
  m_Icon: {fileID: 0}
  m_NavMeshLayer: 0
  m_StaticEditorFlags: 0
  m_IsActive: 1
--- !u!4 &427542
Transform:
  m_ObjectHideFlags: 1
  m_PrefabParentObject: {fileID: 0}
  m_PrefabInternal: {fileID: 100100000}
  m_GameObject: {fileID: 143244}
  m_LocalRotation: {x: 0, y: 0, z: 0, w: 1}
  m_LocalPosition: {x: 0, y: 0, z: -1}
  m_LocalScale: {x: 1, y: 1, z: 1}
  m_Children: []
  m_Father: {fileID: 0}
  m_RootOrder: 0
--- !u!108 &10811052
Light:
  m_ObjectHideFlags: 1
  m_PrefabParentObject: {fileID: 0}
  m_PrefabInternal: {fileID: 100100000}
  m_GameObject: {fileID: 143244}
  m_Enabled: 0
  serializedVersion: 6
  m_Type: 2
  m_Color: {r: 1, g: 1, b: 1, a: 1}
  m_Intensity: 2
  m_Range: 10
  m_SpotAngle: 25
  m_CookieSize: 10
  m_Shadows:
    m_Type: 0
    m_Resolution: -1
    m_Strength: 1
    m_Bias: 0.05
    m_NormalBias: 0.4
    m_NearPlane: 0.2
  m_Cookie: {fileID: 0}
  m_DrawHalo: 0
  m_Flare: {fileID: 0}
  m_RenderMode: 0
  m_CullingMask:
    serializedVersion: 2
    m_Bits: 4294967295
  m_Lightmapping: 4
  m_BounceIntensity: 0
  m_ShadowRadius: 0
  m_ShadowAngle: 0
  m_AreaSize: {x: 1, y: 1}
--- !u!114 &11499758
MonoBehaviour:
  m_ObjectHideFlags: 1
  m_PrefabParentObject: {fileID: 0}
  m_PrefabInternal: {fileID: 100100000}
  m_GameObject: {fileID: 143244}
  m_Enabled: 1
  m_EditorHideFlags: 0
  m_Script: {fileID: 11500000, guid: 0fa893e314747704f8a74fad3f694b24, type: 3}
  m_Name: 
  m_EditorClassIdentifier: 
  colors:
  - {r: 1, g: 1, b: 0, a: 1}
  - {r: 1, g: 0.5019608, b: 0.5019608, a: 1}
  - {r: 1, g: 0, b: 0, a: 1}
  - {r: 0, g: 1, b: 0, a: 1}
  - {r: 0.5019608, g: 0.5019608, b: 1, a: 1}
--- !u!1001 &100100000
Prefab:
  m_ObjectHideFlags: 1
  serializedVersion: 2
  m_Modification:
    m_TransformParent: {fileID: 0}
    m_Modifications:
    - target: {fileID: 0}
      propertyPath: colors.Array.size
      value: 5
      objectReference: {fileID: 0}
    - target: {fileID: 0}
      propertyPath: colors.Array.data[0].r
      value: 1
      objectReference: {fileID: 0}
    - target: {fileID: 0}
      propertyPath: colors.Array.data[0].g
      value: 1
      objectReference: {fileID: 0}
    - target: {fileID: 0}
      propertyPath: colors.Array.data[0].a
      value: 1
      objectReference: {fileID: 0}
    - target: {fileID: 0}
      propertyPath: colors.Array.data[1].b
      value: 0.5019608
      objectReference: {fileID: 0}
    - target: {fileID: 0}
      propertyPath: colors.Array.data[1].a
      value: 1
      objectReference: {fileID: 0}
    - target: {fileID: 0}
      propertyPath: colors.Array.data[2].r
      value: 1
      objectReference: {fileID: 0}
    - target: {fileID: 0}
      propertyPath: colors.Array.data[2].a
      value: 1
      objectReference: {fileID: 0}
    - target: {fileID: 0}
      propertyPath: colors.Array.data[3].g
      value: 1
      objectReference: {fileID: 0}
    - target: {fileID: 0}
      propertyPath: colors.Array.data[3].a
      value: 1
      objectReference: {fileID: 0}
    - target: {fileID: 0}
      propertyPath: colors.Array.data[4].b
      value: 1
      objectReference: {fileID: 0}
    - target: {fileID: 0}
      propertyPath: colors.Array.data[4].a
      value: 1
      objectReference: {fileID: 0}
    - target: {fileID: 0}
      propertyPath: colors.Array.data[4].r
      value: 0.5019608
      objectReference: {fileID: 0}
    - target: {fileID: 0}
      propertyPath: colors.Array.data[4].g
      value: 0.5019608
      objectReference: {fileID: 0}
    - target: {fileID: 0}
      propertyPath: colors.Array.data[1].r
      value: 1
      objectReference: {fileID: 0}
    - target: {fileID: 0}
      propertyPath: colors.Array.data[1].g
      value: 0.5019608
      objectReference: {fileID: 0}
    - target: {fileID: 0}
      propertyPath: m_Color.g
      value: 1
      objectReference: {fileID: 0}
    - target: {fileID: 0}
      propertyPath: m_Color.b
      value: 1
      objectReference: {fileID: 0}
    - target: {fileID: 0}
      propertyPath: m_Enabled
      value: 0
      objectReference: {fileID: 0}
    m_RemovedComponents: []
  m_ParentPrefab: {fileID: 0}
  m_RootGameObject: {fileID: 143244}
  m_IsPrefabParent: 1
