%YAML 1.1
%TAG !u! tag:unity3d.com,2011:
--- !u!114 &11400000
MonoBehaviour:
  m_ObjectHideFlags: 0
  m_PrefabParentObject: {fileID: 0}
  m_PrefabInternal: {fileID: 0}
  m_GameObject: {fileID: 0}
  m_Enabled: 1
  m_EditorHideFlags: 0
  m_Script: {fileID: 11500000, guid: 1885806f1d176c147a23f9a5eb6d49e2, type: 3}
  m_Name: Level-1-7
  m_EditorClassIdentifier: 
  levelItem:
    LevelId: 
    LevelName: 
    LevelText: {fileID: 4900000, guid: 72d03b9749099344a881390048daa74d, type: 3}
    LevelOrder: 0
